name,data_type,bit_offset,bit_length,calibration
pkt251_time_secs,uint,-48,32,
pkt251_time_usecs,uint,-48,32,
pkt251_uint32_bitfld,uint,-48,32,
pkt251_fld1,uint,-48,6,
pkt251_fld2,uint,6,7,
pkt251_fld3,uint,69,6,
pkt251_fld4,uint,123,7,
pkt251_fld5,uint,186,6,
pkt251_flt_sin_1h,float,-48,32,"{""0"":20,""1"":-0.0000379,""2"":2.933}"
pkt251_flt_sin_1d,float,-48,32,
pkt251_dbl_sin_2h,float,-48,64,
pkt251_char_hellow,char,-48,64,
